%YAML 1.1
%TAG !u! tag:unity3d.com,2011:
--- !u!114 &11400000
MonoBehaviour:
  m_ObjectHideFlags: 8
  m_PrefabParentObject: {fileID: 0}
  m_PrefabInternal: {fileID: 0}
  m_GameObject: {fileID: 0}
  m_Enabled: 1
  m_EditorHideFlags: 0
  m_Script: {fileID: 11500000, guid: ebd93e6a9cd49ac4dabd8406ab090ca0, type: 3}
  m_Name: Story
  m_EditorClassIdentifier: 
  sheets:
  - name: Day1
    list:
    - Name: "\u8DEF\u4EBA\u7532"
      Story: "\u7B2C\u4E00\u53E5"
    - Name: "\u8DEF\u4EBA\u4E59"
      Story: "\u7B2C\u4E8C\u53E5"
    - Name: "\u8DEF\u4EBA\u4E19"
      Story: "\u7B2C\u4E09\u53E5"
  - name: Day2
    list:
    - Name: "\u8DEF\u4EBAA"
      Story: "\u7B2C\u56DB\u53E5"
    - Name: "\u8DEF\u4EBAB"
      Story: "\u7B2C\u4E94\u53E5"
    - Name: "\u8DEF\u4EBAC"
      Story: "\u7B2C\u516D\u53E5"
    - Name: "\u8DEF\u4EBAD"
      Story: "\u7B2C\u4E03\u53E5"
    - Name: "\u8DEF\u4EBAE"
      Story: "\u7B2C\u516B\u53E5"
    - Name: "\u8DEF\u4EBAF"
      Story: "\u7B2C\u4E5D\u53E5"
  - name: Day3
    list:
    - Name: "\u8DEF\u4EBA+"
      Story: "\u7B2C\u5341\u53E5"
